\relax 
\@writefile{lof}{\contentsline {figure}{\numberline {1}{\ignorespaces Automaton A\relax }}{3}}
\providecommand*\caption@xref[2]{\@setref\relax\@undefined{#1}}
\newlabel{fig:Automaton A}{{1}{3}}
\@writefile{lof}{\contentsline {figure}{\numberline {2}{\ignorespaces Depth Of Automaton A\relax }}{4}}
\newlabel{fig:Depth Of Automaton A}{{2}{4}}
\@writefile{lof}{\contentsline {figure}{\numberline {3}{\ignorespaces Automaton A'\relax }}{5}}
\newlabel{fig:Automaton A' After Removing Unvisited States}{{3}{5}}
\@writefile{lof}{\contentsline {figure}{\numberline {4}{\ignorespaces Explanation Of Hopcorft's Algorithm\relax }}{7}}
\newlabel{fig:Hopcroft Time Complexity}{{4}{7}}
\@writefile{lof}{\contentsline {figure}{\numberline {5}{\ignorespaces Automaton M After Minimisation\relax }}{7}}
\newlabel{fig:Automaton M After Minimisation}{{5}{7}}
\@writefile{lof}{\contentsline {figure}{\numberline {6}{\ignorespaces Depth Of Automaton M\relax }}{7}}
\newlabel{fig:Depth Of Automaton M}{{6}{7}}
\@writefile{lof}{\contentsline {figure}{\numberline {7}{\ignorespaces Strongly Connected Components\relax }}{9}}
\newlabel{fig:Strongly Connected Components}{{7}{9}}
\@writefile{lof}{\contentsline {figure}{\numberline {8}{\ignorespaces Statistics About The Strongly Connected Component\relax }}{9}}
\newlabel{fig:Statistics of SCC}{{8}{9}}
